{
	"process_id" : 20876,
	"version" : "2020.3.12f1",
	"app_path" : "C:/Program Files/Unity/Hub/Editor/2020.3.12f1/Editor/Unity.exe",
	"app_contents_path" : "C:/Program Files/Unity/Hub/Editor/2020.3.12f1/Editor/Data"
}